; rev 0xC
2000
07
40
07
10
20
00
08
00
00
47
03
10
00
40
06
10
00
40
05
10
00
00
00
08
01
47
03
10
00
40
06
10
00
40
05
10
00
00
00
08
02
47
03
10
00
40
06
10
00
40
05
10
00
00
00
08
03
47
03
10
00
40
06
10
00
40
05
10
00
00
00
08
00
44
03
10
00
00
00
04
00
60
00
10
01
40
B0
11
00
40
60
10
12
00
00
80
00
40
03
10
00
00
00
04
00
60
07
10
00
00
08
00
00
50
07
10
01
00
08
00
01
40
03
10
00
00
00
04
00
60
07
10
02
00
08
00
00
50
07
10
03
00
08
00
02
40
03
10
00
00
00
04
00
60
07
10
04
00
08
00
00
50
07
10
05
00
08
00
03
40
03
10
00
00
00
04
00
60
07
10
06
00
08
00
04
40
03
10
00
00
00
04
00
60
07
10
08
00
08
00
00
50
07
10
09
00
08
00
05
40
03
10
00
00
00
04
00
60
07
10
0A
00
08
00
00
50
07
10
0B
00
08
00
08
40
03
10
00
00
00
04
00
60
07
10
10
00
08
00
00
50
07
10
11
00
08
00
09
40
03
10
00
00
00
04
00
60
07
10
12
00
08
00
00
50
07
10
13
00
08
00
0A
40
03
10
00
00
00
04
00
60
07
10
14
00
08
00
00
50
07
10
15
00
08
00
0B
40
03
10
00
00
00
04
00
60
07
10
16
00
08
00
00
50
07
10
17
00
08
00
0C
40
03
10
00
00
00
04
00
60
07
10
18
00
08
00
00
50
07
10
19
00
08
00
0D
40
03
10
00
00
00
04
00
60
07
10
1A
00
08
00
00
50
07
10
1B
00
08
00
0E
40
03
10
00
00
00
04
00
60
07
10
1C
00
08
00
00
50
07
10
1D
00
08
00
10
40
03
10
00
00
00
04
00
60
07
10
20
00
08
00
00
50
07
10
21
00
08
00
11
40
03
10
00
00
00
04
00
60
07
10
22
00
08
00
00
50
07
10
23
00
08
00
12
40
03
10
00
00
00
04
00
60
07
10
24
00
08
00
00
50
07
10
25
00
08
00
13
40
03
10
00
00
00
04
00
60
07
10
26
00
08
00
00
50
07
10
27
00
08
00
14
40
03
10
00
00
00
04
00
60
07
10
28
00
08
00
00
50
07
10
29
00
08
00
15
40
03
10
00
00
00
04
00
60
07
10
2A
00
08
00
00
50
07
10
2B
00
08
00
00
41
03
10
00
80
00
00
00
70
06
10
01
80
00
00
00
70
05
10
00
00
00
08
01
41
03
10
02
80
00
00
00
70
06
10
03
80
00
00
00
70
05
10
00
00
00
08
02
41
03
10
04
80
00
00
00
70
06
10
05
80
00
00
00
70
05
10
00
00
00
08
03
41
03
10
06
80
00
00
00
70
06
10
07
80
00
00
00
70
05
10
00
00
00
08
04
41
03
10
08
80
00
00
00
70
06
10
09
80
00
00
00
70
05
10
00
00
00
08
05
41
03
10
0A
80
00
00
00
70
06
10
0B
80
00
00
00
70
05
10
00
00
00
08
06
41
03
10
0C
80
00
00
00
70
06
10
0D
80
00
00
00
70
05
10
00
00
00
08
07
41
03
10
0E
80
00
00
00
70
06
10
0F
80
00
00
00
70
05
10
00
00
00
08
08
41
03
10
10
80
00
00
00
70
06
10
11
80
00
00
00
70
05
10
00
00
00
08
09
41
03
10
12
80
00
00
00
70
06
10
13
80
00
00
00
70
05
10
00
00
00
08
0A
41
03
10
14
80
00
00
00
70
06
10
0C
40
05
10
00
00
00
08
0B
41
03
10
16
80
00
00
00
70
06
10
17
80
00
00
00
70
05
10
00
00
00
08
0C
41
03
10
18
80
00
00
00
70
06
10
19
80
00
00
00
70
05
10
00
00
00
08
0D
41
03
10
1A
80
00
00
00
70
06
10
1B
80
00
00
00
70
05
10
00
00
00
08
0E
41
03
10
1C
80
00
00
00
70
06
10
1D
80
00
00
00
70
05
10
00
00
00
08
0F
41
03
10
1E
80
00
00
00
70
06
10
1F
80
00
00
00
70
05
10
00
00
00
08
10
41
03
10
20
80
00
00
00
70
06
10
21
80
00
00
00
70
05
10
00
00
00
08
11
41
03
10
22
80
00
00
00
70
06
10
23
80
00
00
00
70
05
10
00
00
00
08
12
41
03
10
24
80
00
00
00
70
06
10
25
80
00
00
00
70
05
10
00
00
00
08
13
41
03
10
26
80
00
00
00
70
06
10
27
80
00
00
00
70
05
10
00
00
00
08
14
41
03
10
28
80
00
00
00
70
06
10
29
80
00
00
00
70
05
10
00
00
00
08
15
41
03
10
2A
80
00
00
00
70
06
10
2B
80
00
00
00
70
05
10
00
00
00
08
16
41
03
10
2C
80
00
00
00
70
06
10
2D
80
00
00
00
70
05
10
00
00
00
08
17
41
03
10
2E
80
00
00
00
70
06
10
2F
80
00
00
00
70
05
10
00
00
00
08
18
41
03
10
30
80
00
00
00
70
06
10
31
80
00
00
00
70
05
10
00
00
00
08
19
41
03
10
32
80
00
00
00
70
06
10
33
80
00
00
00
70
05
10
00
00
00
08
1A
41
03
10
34
80
00
00
00
70
06
10
35
80
00
00
00
70
05
10
00
00
00
08
1B
41
03
10
36
80
00
00
00
70
06
10
37
80
00
00
00
70
05
10
00
00
00
08
1C
41
03
10
38
80
00
00
00
70
06
10
39
80
00
00
00
70
05
10
00
00
00
08
1D
41
03
10
3A
80
00
00
00
70
06
10
3B
80
00
00
00
70
05
10
00
00
00
08
1E
41
03
10
3C
80
00
00
00
70
06
10
3D
80
00
00
00
70
05
10
00
00
00
08
1F
41
03
10
3E
80
00
00
00
70
06
10
3F
80
00
00
00
70
05
10
00
00
00
08
20
41
03
10
40
80
00
00
00
70
06
10
41
80
00
00
00
70
05
10
00
00
00
08
21
41
03
10
42
80
00
00
00
70
06
10
43
80
00
00
00
70
05
10
00
00
00
08
22
41
03
10
44
80
00
00
00
70
06
10
45
80
00
00
00
70
05
10
00
00
00
08
23
41
03
10
46
80
00
00
00
70
06
10
47
80
00
00
00
70
05
10
00
00
00
08
24
41
03
10
48
80
00
00
00
70
06
10
49
80
00
00
00
70
05
10
00
00
00
08
25
41
03
10
4A
80
00
00
00
70
06
10
4B
80
00
00
00
70
05
10
00
00
00
08
26
41
03
10
4C
80
00
00
00
70
06
10
4D
80
00
00
00
70
05
10
00
00
00
08
27
41
03
10
4E
80
00
00
00
70
06
10
4F
80
00
00
00
70
05
10
00
00
00
08
00
44
03
10
00
40
06
10
00
40
05
10
00
00
00
08
12
00
00
20
